{
  "data": [
    {
      "id": "1324123",
      "number": "218762178612786",
      "name": "Banco Central",
      "shortName": "BCR",
      "currency": "USD",
      "swift": "1101011001102",
      "comment": "Cuenta a conciliar.",
      "creationDate": "2022-04-10T22:50:35-05:00",
      "lastUpdateDate": "2022-04-12T22:50:35-05:00",
      "accountOriginType": {
        "id": "NATIONAL",
        "name": "National account"
      },
      "status": {
        "id": "ACTIVE",
        "name": "Active"
      },
      "participants": [
        {
          "id": "1234",
          "participantType": "CREATOR"
        }
      ],
      "bank": {
        "id": "BCPELPEL",
        "location": {
          "addressName": "Av. Republica Panama 3055",
          "city": "Lima",
          "country": "Perú",
          "branch": {
            "id": "0708",
            "name": "Tesorería"
          }
        }
      }
    }
  ]
}
